{
  "version": 3,
  "cmakeMinimumRequired": {
    "major": 3,
    "minor": 20,
    "patch": 0
  },
  "configurePresets": [
    {
      "name": "ninja-release",
      "displayName": "Ninja Release Config",
      "description": "Cmake config file: build system - Ninja; build type - Release",
      "binaryDir": "${sourceDir}/build/${presetName}",
      "generator": "Ninja",
      "cacheVariables": {
        "CMAKE_BUILD_TYPE": "Release"
      }
    },
    {
      "name": "ninja-debug",
      "displayName": "Ninja Debug Config",
      "description": "Cmake config file: build system - Ninja; build type - Debug",
      "binaryDir": "${sourceDir}/build/${presetName}",
      "generator": "Ninja",
      "cacheVariables": {
        "CMAKE_BUILD_TYPE": "Debug"
      }
    },
    {
      "name": "make-release",
      "displayName": "Make Release Config",
      "description": "Cmake config file: build system - Unix Makefiles; build type - Release",
      "binaryDir": "${sourceDir}/build/${presetName}",
      "generator": "Unix Makefiles",
      "cacheVariables": {
        "CMAKE_BUILD_TYPE": "Release"
      }
    },
    {
      "name": "make-debug",
      "displayName": "Make Debug Config",
      "description": "Cmake config file: build system - Unix Makefiles; build type - Debug",
      "binaryDir": "${sourceDir}/build/${presetName}",
      "generator": "Unix Makefiles",
      "cacheVariables": {
        "CMAKE_BUILD_TYPE": "Debug"
      }
    },
    {
      "name": "default",
      "inherits": "ninja-release"
    }
  ],
  "buildPresets": [
    {
      "name": "ninja-release",
      "configurePreset": "ninja-release",
      "jobs": 8
    },
    {
      "name": "ninja-debug",
      "configurePreset": "ninja-debug",
      "jobs": 8
    },
    {
      "name": "make-release",
      "configurePreset": "make-release",
      "jobs": 8
    },
    {
      "name": "make-debug",
      "configurePreset": "make-debug",
      "jobs": 8
    },
    {
      "name": "default",
      "configurePreset": "default",
      "jobs": 8
    }
  ],
  "testPresets": [
    {
      "name": "default",
      "configurePreset": "default",
      "output": {
        "outputOnFailure": true
      },
      "execution": {
        "noTestsAction": "error",
        "stopOnFailure": true
      }
    }
  ]
}
